^C:\USERS\VEDRI\SOURCE\REPOS\PROGRAMIRANJEII_USMENI\PROGRAMIRANJEII_USMENI\DEBUG\MARTIN_VEDRIS_FUNC_USMENI.OBJ|C:\USERS\VEDRI\SOURCE\REPOS\PROGRAMIRANJEII_USMENI\PROGRAMIRANJEII_USMENI\DEBUG\MARTIN_VEDRIS_MAIN_USMENI.OBJ|C:\USERS\VEDRI\SOURCE\REPOS\PROGRAMIRANJEII_USMENI\PROGRAMIRANJEII_USMENI\DEBUG\TODO.OBJ
C:\USERS\VEDRI\SOURCE\REPOS\PROGRAMIRANJEII_USMENI\DEBUG\PROGRAMIRANJEII_USMENI.EXE
C:\USERS\VEDRI\SOURCE\REPOS\PROGRAMIRANJEII_USMENI\DEBUG\PROGRAMIRANJEII_USMENI.ILK
C:\USERS\VEDRI\SOURCE\REPOS\PROGRAMIRANJEII_USMENI\DEBUG\PROGRAMIRANJEII_USMENI.PDB
